…
[1] "bpfilter logLik for Omicron20 model: -6966469.45701177"
[1] "Starting local search"
[1] "Mon Feb  5 10:54:11 2024"
Loading required package: rngtools
[1] "Finished local search with time:"
      user     system    elapsed 
3346997.98  276985.42   65640.15 
[1] "Tue Feb  6 05:08:11 2024"
[1] "Getting likelihoods for each parameter set in local search"
[1] "Finished getting likelihoods for each parameter set in local search with time:"
     user    system   elapsed 
506540.33  40316.53  10005.95 
[1] "Tue Feb  6 07:54:57 2024"
[1] "Log-likelihoods for each parameter set in local search:"
# A tibble: 144 × 4
   which starting_set    logLik    se
   <int>        <int>     <dbl> <dbl>
 1     1           36 -6970923.  592.
 2     2           36 -6969232.  850.
 3     3           36 -6955337. 2177.
 4     4           36 -6981752.  414.
 5     5           36 -6975144. 1249.
 6     6           36 -6979583. 2280.
 7     7           36 -6957098. 1414.
 8     8           36 -6969224.  944.
 9     9           36 -6971368.  276.
10    10           36 -6969164.  652.
# ℹ 134 more rows
…
[1] "bpfilter logLik for Omicron20 model: -6977990.08175082"
[1] "Starting local search"
[1] "Tue Feb  6 07:55:19 2024"
Loading required package: rngtools
[1] "Finished local search with time:"
      user     system    elapsed 
3369210.76  277966.44   61109.15 
[1] "Wed Feb  7 00:53:48 2024"
[1] "Getting likelihoods for each parameter set in local search"
[1] "Finished getting likelihoods for each parameter set in local search with time:"
     user    system   elapsed 
491095.28  35498.79  10360.25 
[1] "Wed Feb  7 03:46:29 2024"
[1] "Log-likelihoods for each parameter set in local search:"
# A tibble: 144 × 4
   which starting_set    logLik    se
   <int>        <int>     <dbl> <dbl>
 1     1          104 -6964744.  957.
 2     2          104 -6947879. 2890.
 3     3          104 -6955000.  841.
 4     4          104 -6960722. 2505.
 5     5          104 -6955055. 5972.
 6     6          104 -6939956.  178.
 7     7          104 -6936317. 2344.
 8     8          104 -6931104.  366.
 9     9          104 -6962338.  666.
10    10          104 -6982106. 2645.
# ℹ 134 more rows
…
[1] "bpfilter logLik for Omicron20 model: -6940963.67782169"
[1] "Starting local search"
[1] "Wed Feb  7 12:53:16 2024"
Loading required package: rngtools
[1] "Finished local search with time:"
      user     system    elapsed 
3407930.63  284590.21   97713.63 
[1] "Thu Feb  8 16:01:49 2024"
[1] "Getting likelihoods for each parameter set in local search"
[1] "Finished getting likelihoods for each parameter set in local search with time:"
     user    system   elapsed 
534036.40  41822.78  17860.43 
[1] "Thu Feb  8 20:59:30 2024"
[1] "Log-likelihoods for each parameter set in local search:"
# A tibble: 144 × 4
   which starting_set    logLik    se
   <int>        <int>     <dbl> <dbl>
 1     1           14 -6878493.  447.
 2     2           14 -6887824.  673.
 3     3           14 -6891214. 2951.
 4     4           14 -6890387. 1151.
 5     5           14 -6890387. 1456.
 6     6           14 -6878315.  656.
 7     7           14 -6888530. 2697.
 8     8           14 -6880116.  373.
 9     9           14 -6888877.  289.
10    10           14 -6877335.  161.
# ℹ 134 more rows
…
[1] "bpfilter logLik for Omicron20 model: -6880571.5430985"
[1] "Starting local search"
[1] "Thu Feb  8 20:59:55 2024"
Loading required package: rngtools
[1] "Finished local search with time:"
      user     system    elapsed 
3355650.03  281386.90   91301.36 
[1] "Fri Feb  9 22:21:36 2024"
[1] "Getting likelihoods for each parameter set in local search"
[1] "Finished getting likelihoods for each parameter set in local search with time:"
     user    system   elapsed 
518252.04  28054.61  14604.42 
[1] "Sat Feb 10 02:25:01 2024"
[1] "Log-likelihoods for each parameter set in local search:"
# A tibble: 144 × 4
   which starting_set    logLik     se
   <int>        <int>     <dbl>  <dbl>
 1     1           76 -6875027.  310. 
 2     2           76 -6879378.  238. 
 3     3           76 -6872851.   55.4
 4     4           76 -6875817.  234. 
 5     5           76 -6875758.  309. 
 6     6           76 -6879627. 2606. 
 7     7           76 -6877060.  487. 
 8     8           76 -6875338.  133. 
 9     9           76 -6873977.  107. 
10    10           76 -6875893.   16.4
# ℹ 134 more rows
…
[1] "bpfilter logLik for Omicron20 model: -6875840.04876546"
[1] "Starting local search"
[1] "Sat Feb 10 02:25:26 2024"
Loading required package: rngtools
[1] "Finished local search with time:"
      user     system    elapsed 
3171919.94  227681.99   75597.69 
[1] "Sat Feb 10 23:25:24 2024"
[1] "Getting likelihoods for each parameter set in local search"
[1] "Finished getting likelihoods for each parameter set in local search with time:"
     user    system   elapsed 
513844.14  33309.47  11557.03 
[1] "Sun Feb 11 02:38:01 2024"
[1] "Log-likelihoods for each parameter set in local search:"
# A tibble: 144 × 4
   which starting_set    logLik     se
   <int>        <int>     <dbl>  <dbl>
 1     1           56 -6872246.   19.9
 2     2           56 -6875203.  223. 
 3     3           56 -6872660.   60.4
 4     4           56 -6872253.   77.5
 5     5           56 -6873871.  241. 
 6     6           56 -6875228.  308. 
 7     7           56 -6874508.  639. 
 8     8           56 -6871594.  217. 
 9     9           56 -6884121.  329. 
10    10           56 -6884345. 1199. 
# ℹ 134 more rows
…
[1] "bpfilter logLik for Omicron20 model: -6875087.34204526"
[1] "Starting local search"
[1] "Sun Feb 11 02:38:26 2024"
Loading required package: rngtools
[1] "Finished local search with time:"
      user     system    elapsed 
3203842.44  226676.89   68327.95 
[1] "Sun Feb 11 21:37:14 2024"
[1] "Getting likelihoods for each parameter set in local search"
[1] "Finished getting likelihoods for each parameter set in local search with time:"
     user    system   elapsed 
504879.41  29967.70  11161.22 
[1] "Mon Feb 12 00:43:15 2024"
[1] "Log-likelihoods for each parameter set in local search:"
# A tibble: 144 × 4
   which starting_set    logLik    se
   <int>        <int>     <dbl> <dbl>
 1     1           66 -6874590. 166. 
 2     2           66 -6871177.  76.5
 3     3           66 -6871409.  67.7
 4     4           66 -6873664.  97.0
 5     5           66 -6871473. 166. 
 6     6           66 -6872022. 141. 
 7     7           66 -6871021.  39.9
 8     8           66 -6873711.  72.9
 9     9           66 -6870814.  39.9
10    10           66 -6880118. 141. 
# ℹ 134 more rows
…
[1] "bpfilter logLik for Omicron20 model: -6874609.21697825"
[1] "Starting local search"
[1] "Mon Feb 12 00:43:38 2024"
Loading required package: rngtools
[1] "Finished local search with time:"
      user     system    elapsed 
3178518.48  210524.94   70558.56 
[1] "Mon Feb 12 20:19:37 2024"
[1] "Getting likelihoods for each parameter set in local search"
[1] "Finished getting likelihoods for each parameter set in local search with time:"
     user    system   elapsed 
510838.93  32667.01  12873.62 
[1] "Mon Feb 12 23:54:11 2024"
[1] "Log-likelihoods for each parameter set in local search:"
# A tibble: 144 × 4
   which starting_set    logLik      se
   <int>        <int>     <dbl>   <dbl>
 1     1           74 -6871439.   90.2 
 2     2           74 -6870871.   22.5 
 3     3           74 -6885977.  422.  
 4     4           74 -6872552.  180.  
 5     5           74 -6876269.  296.  
 6     6           74 -6875664. 1093.  
 7     7           74 -6871187.  208.  
 8     8           74 -6870575.  480.  
 9     9           74 -6872555.    7.78
10    10           74 -6872730.  231.  
# ℹ 134 more rows
…
[1] "bpfilter logLik for Omicron20 model: -6875203.20737517"
[1] "Starting local search"
[1] "Mon Feb 12 23:54:33 2024"
Loading required package: rngtools
[1] "Finished local search with time:"
      user     system    elapsed 
3227259.77  224148.63   70191.59 
[1] "Tue Feb 13 19:24:25 2024"
[1] "Getting likelihoods for each parameter set in local search"
[1] "Finished getting likelihoods for each parameter set in local search with time:"
     user    system   elapsed 
525712.29  34465.48  12855.62 
[1] "Tue Feb 13 22:58:40 2024"
[1] "Log-likelihoods for each parameter set in local search:"
# A tibble: 144 × 4
   which starting_set    logLik     se
   <int>        <int>     <dbl>  <dbl>
 1     1           58 -6877645.  128. 
 2     2           58 -6871603.   32.6
 3     3           58 -6870944.  128. 
 4     4           58 -6872624.  452. 
 5     5           58 -6871317.   60.9
 6     6           58 -6883371. 1161. 
 7     7           58 -6871387.   85.0
 8     8           58 -6875656.  764. 
 9     9           58 -6871916.   59.2
10    10           58 -6874455.  514. 
# ℹ 134 more rows
…
[1] "bpfilter logLik for Omicron20 model: -6873097.45597139"
[1] "Starting local search"
[1] "Tue Feb 13 22:59:05 2024"
Loading required package: rngtools
[1] "Finished local search with time:"
      user     system    elapsed 
3245962.04  239821.28   72313.35 
[1] "Wed Feb 14 19:04:18 2024"
[1] "Getting likelihoods for each parameter set in local search"
[1] "Finished getting likelihoods for each parameter set in local search with time:"
     user    system   elapsed 
526348.96  34026.34  11148.97 
[1] "Wed Feb 14 22:10:07 2024"
[1] "Log-likelihoods for each parameter set in local search:"
# A tibble: 144 × 4
   which starting_set    logLik     se
   <int>        <int>     <dbl>  <dbl>
 1     1          116 -6871305.   4.52
 2     2          116 -6871735. 140.  
 3     3          116 -6871398.  49.0 
 4     4          116 -6871317. 198.  
 5     5          116 -6870629.  23.3 
 6     6          116 -6872347. 284.  
 7     7          116 -6871742. 443.  
 8     8          116 -6871150.  51.9 
 9     9          116 -6878310. 913.  
10    10          116 -6872804.  94.4 
# ℹ 134 more rows
…
[1] "bpfilter logLik for Omicron20 model: -6875444.13123454"
[1] "Starting local search"
[1] "Wed Feb 14 22:10:31 2024"
Loading required package: rngtools
[1] "Finished local search with time:"
      user     system    elapsed 
3568512.95  284307.80   88445.05 
[1] "Thu Feb 15 22:44:36 2024"
[1] "Getting likelihoods for each parameter set in local search"
[1] "Finished getting likelihoods for each parameter set in local search with time:"
     user    system   elapsed 
526016.97  36688.85  13581.21 
[1] "Fri Feb 16 02:30:58 2024"
[1] "Log-likelihoods for each parameter set in local search:"
# A tibble: 144 × 4
   which starting_set    logLik      se
   <int>        <int>     <dbl>   <dbl>
 1     1           30 -6882625. 3049.  
 2     2           30 -6879782.  117.  
 3     3           30 -6870914.  139.  
 4     4           30 -6870024.    4.99
 5     5           30 -6870242.   96.7 
 6     6           30 -6888516. 2227.  
 7     7           30 -6870865.   44.2 
 8     8           30 -6870783.  281.  
 9     9           30 -6870169.   10.4 
10    10           30 -6885238. 1017.  
# ℹ 134 more rows
…
[1] "bpfilter logLik for Omicron20 model: -6886353.83693463"
[1] "Starting local search"
[1] "Fri Feb 16 02:31:23 2024"
Loading required package: rngtools
[1] "Finished local search with time:"
      user     system    elapsed 
3462310.12  270930.06   83311.46 
[1] "Sat Feb 17 01:39:54 2024"
[1] "Getting likelihoods for each parameter set in local search"
[1] "Finished getting likelihoods for each parameter set in local search with time:"
     user    system   elapsed 
540261.26  35774.03  16175.20 
[1] "Sat Feb 17 06:09:30 2024"
[1] "Log-likelihoods for each parameter set in local search:"
# A tibble: 144 × 4
   which starting_set    logLik       se
   <int>        <int>     <dbl>    <dbl>
 1     1           41 -6870909.  219.   
 2     2           41 -6870447.  221.   
 3     3           41 -6872589.   79.9  
 4     4           41 -6870565.   80.3  
 5     5           41 -6920389. 8545.   
 6     6           41 -6885468.  203.   
 7     7           41 -6871777.  129.   
 8     8           41 -6871681.    0.946
 9     9           41 -6873075.   60.1  
10    10           41 -6896117. 1279.   
# ℹ 134 more rows
…
[1] "bpfilter logLik for Omicron20 model: -6875738.55616137"
[1] "Starting local search"
[1] "Sat Feb 17 06:09:54 2024"
Loading required package: rngtools
[1] "Finished local search with time:"
     user    system   elapsed 
3597616.5  282188.5  101868.2 
[1] "Sun Feb 18 10:27:43 2024"
[1] "Getting likelihoods for each parameter set in local search"
[1] "Finished getting likelihoods for each parameter set in local search with time:"
     user    system   elapsed 
540678.44  35151.49  15444.42 
[1] "Sun Feb 18 14:45:08 2024"
[1] "Log-likelihoods for each parameter set in local search:"
# A tibble: 144 × 4
   which starting_set    logLik       se
   <int>        <int>     <dbl>    <dbl>
 1     1           41 -6870909.  219.   
 2     2           41 -6870447.  221.   
 3     3           41 -6872589.   79.9  
 4     4           41 -6870565.   80.3  
 5     5           41 -6920389. 8545.   
 6     6           41 -6885468.  203.   
 7     7           41 -6871777.  129.   
 8     8           41 -6871681.    0.946
 9     9           41 -6873075.   60.1  
10    10           41 -6896117. 1279.   
# ℹ 134 more rows
…
