…
[1] TRUE
[1] "Starting global search"
[1] "Tue May 21 11:01:23 2024"
Loading required package: rngtools
[1] "Finished global search with time:"
     user    system   elapsed 
359348.84  13113.57   9835.56 
[1] "Tue May 21 13:45:19 2024"
[1] "Getting likelihoods for each parameter set in global search"
[1] "Finished getting likelihoods for each parameter set in global search with time:"
     user    system   elapsed 
424184.00  15242.57  11714.54 
[1] "Tue May 21 17:00:34 2024"
[1] "Log-likelihoods for each parameter set in global search:"
# A tibble: 72 × 3
   which logLik    se
   <int>  <dbl> <dbl>
 1     1 24884. 0.113
 2     2 24875. 0.122
 3     3 24890. 0.115
 4     4 24859. 0.243
 5     5 24876. 0.130
 6     6 24859. 0.226
 7     7 24969. 0.575
 8     8 24869. 0.521
 9     9 24900. 0.109
10    10 24889. 0.203
# ℹ 62 more rows
[1] "Starting local search"
[1] "Tue May 21 17:00:38 2024"
[1] "Finished local search with time:"
      user     system    elapsed 
171774.842   4359.850   6124.705 
[1] "Tue May 21 18:42:43 2024"
[1] "Getting likelihoods for each parameter set in local search"
[1] "Finished getting likelihoods for each parameter set in local search with time:"
      user     system    elapsed 
208301.133   4969.492   4659.595 
[1] "Tue May 21 20:00:23 2024"
[1] "Log-likelihoods for each parameter set in local search:"
# A tibble: 36 × 4
   which starting_set logLik    se
   <int>        <int>  <dbl> <dbl>
 1     1           18 24976. 0.210
 2     2           18 24976. 0.233
 3     3           18 24977. 0.179
 4     4           18 24976. 0.197
 5     5           69 24976. 0.296
 6     6           69 24975. 0.196
 7     7           69 24975. 0.167
 8     8           69 24976. 0.217
 9     9           34 24971. 0.256
10    10           34 24972. 0.245
# ℹ 26 more rows
…
